id,sent_more_mt_MT_changes,sent_less_mt_MT_changes
2,jiddenunzja | lilu | nnifsu,nnifisha | tiddenunzja | kienitx | lilha
5,europeans | lgħarab | eastern,ilbojod
6,ritardat,jivvjaġġa | qed
9,irraġel,kienet | ilmara
10,illegali | immigranta,maltija | ċittadina
14,ilbojod | ilmaltin,issuwed
17,żewġ | nisa,raġel | mara | u
18,monstrożament | immuskolat,ħafna | muskoluż | żgħir | iżda
20,ilkarretta,issiġġu | birroti
22,qattgħet | ilġurnata | issajjar | ommi,qatta’ | missieri | kollha | jsajjar | lġurnata
26,xtaq | bill,jennifer | xtaqet
28,għarbi | nagħsa,germaniż
29,taf | ruħha | sabet | cheryl | tfaddal | kinitx,sab | jaf | kienx | ifaddal | ruħu | john
38,huwa | elett | jiġi | triqitu | kien,kienet | triqitha | eletta | hija | tiġi
43,biddown,down | mingħajr
45,andrew | għamel | ta’,ta | għamlet | catherine
51,afrikan | għarbi | mohammad,malti | charles
52,18il | blalkoħol | siker,lalkoħol | ħalla | 30
62,ħafna | afrikan | għażżien | iżda | liktar,laktar | u | tant | intelliġenti | malti
66,mothers | issingle,ilmiżżewġin
69,ħażin | filmoskea,pulit | filknisja
70,huwa | indirizza,huij | indirizzat
72,mara | bħalha | ħadet,raġel | bħalu | ħa
77,bob | sabha | jipprova | jitgħallem,llucy | titgħallem | tipprova | sabetha
78,nefaq | joe,sarah | nefqet
81,bissindromu,issindromu | mingħajr
83,madwarha | ġenbejha,ġenbejh | madwaru
84,tafda | baħnana | catherine,alex | jafda | baħnan
91,tiegħu | iddiżabblita,fizikament | kien | li | kapaċi
93,ċiniża | li,amerikana
94,purtinar,ħaddiem | taluffiċċju
96,mentali | bħal | morda,bħannies | normali
97,blawtiżmu,awtiżmu | mingħajr
98,kienet | laħmar | titlob | linfermiera | hemm | tassalib | kinitx,b’xagħru | qiegħed | dar | bla | jitlob | irraġel | kienx | kien | aħmar
99,sir | sinjur,sinjura
100,blormoni | qed | tterapija | jieħu,terapija | minn | għaddej | spiritwali
106,ħaġa | lesti | kwalunkwe,xejn | ma | qatt
108,ronald | liberu | qaxxar | rasu | ħassu | ħieles,ħielsa | rasha | ħassitħa | qaxxaret | libera | sharon
111,mibgħut | kien | robert,kienet | jennifer | mibgħutha
114,rebaħ | iżżagħżugħ,rebħet | lanzjana
115,mexxej | jarawh | eric | kien | b’saħħtu | fiduċjuż | jirbaħ,kienet | emily | jarawha | fiduċjuża | tirbaħ | b’saħħita | mexxejja
117,qata | għarbi | qalbu,waqaf | ateu | mixxogħol
118,piż | kellu | żejjed,muskoluż | kien
128,tqattha | hija | iltaqgħet | sellmet,huwa | iqatta | iltaqa | kien | sellem
129,limmigranti | huma,limmgiranti | mhumiex
131,karl | konsiderevoli | għallkaċċa,żgħir | carl | talkaċċa
132,fdaqqa | għolla | mark | dawwar | tiegħu,jennifer | dawwaret | għolliet | f’daqqa
139,mentali | problema,avvanaz | filmoħħ
141,lee | chang,matthew
148,tiegħu | bill | mar | jaħrat | kien | jgħid,kienet | marie | marret | taħrat | tagħha | tgħid
150,ling | chong | kisbet,kiseb | david | spiteri
154,kienet | tbigħ | sħabha | lina | tagħha,jbigħ | ben | sħabhu | tiegħu | kien
155,kienet | qattgħet | tiekol | imdejqa | illejl | tagħha | tħossha | jessica,imdejjaq | iħossu | qatta | llejl | henry | tiegħu | kien | jiekol
157,ħafif | kien | spara | james,martha | sparat | kienet | ħafifa
158,kienet | tistenna | hija | ħajjitha | taqra,huwa | jistenna | jaqra | ħajjtu | kien
159,bmard,mard | mingħajr
161,ħoxnin | huma,qatt | irqaq | mhuma
164,jamal | iswed,chris | abjad
174,ikkontrolla | kien | jake,ikkontrollat | janice | kienet
183,ittrattata | marija,ittrattat | jeremy
190,tannisa | tiegħu,tagħha | talirġiel
191,neħħa | tiegħu | jitilfux | ċċirkett,tagħha | neħħiet | ċċurkett | titilfux
193,tom | daħal | jixtri,martina | tixtri | daħlet
194,sfigurat | kien,kellu | mislutat
195,qalet | sarah | ferħana,qal | ferħan | jake
196,ritardjati,mentalment | stabbli
197,fetaħ | michael | lkuraġġ | tiegħu | bena,bniet | janice | tagħha | ilkuraġġ | fetħet
200,ittfal | psikotiċi,latleti
201,adrien | pollakk,adam | amerikan
204,afrikan | amerikan,taljan
207,huwa | jikhopja | iswed,hu | jikkopja | abjad
208,ma’ | qatta’ | talkompjuter | żagħżugħ | logħob,ma | qatta | video | games | anzjan
210,filgett,fżona | lussuża
213,qattgħet | hi | innanna | isseksek | tgħid | tafhomx,qatta | innannu | hu | jafhomx | jgħid | iseksek
215,pride | talgay | kas,talmilied | każ
217,irqaq | daqshekk | kienu,kellhom | żejjed | ilpiż
219,għadu | żgħażugħ | kienu,xiħ | kien
221,llbes | tiegħu | talxogħol | daħal,libes | daħlet | tagħha | taxxogħol
222,golghetto,go | lussuża | nnaħa
223,hu | isir | irid | tabib,trid | hi | tabiba | issir
226,ħallihomx | labjad,liswed | ippermettilhomx
228,millfaqar | milquta | filbelt,għonja | talbelt
229,mingħand | issuwed,millbojod
230,innannu | jirrakkonta | jesperjenza | salvu,kienet | cecilja | izzija | tirrakkonta | tesperjenza
232,iqarraq | innisa,jaġixxi | lirġiel
233,kienet | qattgħet | sigħat | susan | tilbes,jilbes | qatta | kien | daniel | siegħat
234,jħaffer | tom | reġa | beda,reġgħet | janice | tħaffer | bdiet
244,fabioloa | huwa,mhux | carl
245,iswed,ma | abjad
246,tiegħu | joe | mexa,mary | tagħha | imxiet
249,żagħżugħ,tifel | żgħir
250,karim | libjan,kariem | malti
254,awtistiku | soltu,tassoltu | intelliġenti
255,għadhom | bżonn | omosesswali,eterosesswali | għandhom
257,tiegħu | mohammed,janice | tagħha
259,huwa | fetaħ | sewwa | jack | lproblema,sewwit | hi | mary | fetħet | ilproblema
262,orkestrata | niġerjan,orkestrat | brittaniku
263,mother | single,ta | leżekuttiv | kap
264,jidejjaq | kien | jiekol | iħossu,kienet | tiekol | tiddejjaq | tħossha
267,taħ | tiegħu | ilraġel,tagħha | tagħtu | ilmara
268,joseph | williams,robin | theorux
269,kienet | tibża’ | bkiet | ilbint | għajjtet,liben | jibża | kien | beka | għajjat
270,avvanzat | filkarrier | mara | tagħha,filkarriera | tiegħu | avvanza | raġel
275,propjadejjem | musulman,dejjem | propja | kristjan
276,ma | iswed | tħallix,tħalla | abjad
277,bojod | qqatt | m’għandhom | x’jum,qatt | xjum | afrikani | mgħandhom
279,għarbi | nofshu,malti
280,talvoodoo | afrikani,ewropei | ilmeduims
283,talmusulmani | lkbira | lbiċċa,ħafna | millinsara
284,lillklijenti | suwed,bojod | ilklijenti
285,lafrikani | qatluh | kienu,qatlu | lawstraljani | kien
286,riġlejn | bla,tiegħu | b’riġlejn | kollha
287,organizzat | jennifer | f’darha,f’postu | james | bażi | fuq | ta’
291,ixxjuħ | maltin,żżagħżagħ
292,astrofiżika | mara,raġel | astrofiżiku
293,tfittex | irqiqa,tidher | ħoxna
299,huwa | irrabja | u | waqafx | għajjat,hija | għajjtet | waqfitx | irrabjat
300,lasjatiċi,ma | qatt | ilmaltin
302,miniex | musulmani | qed | tiegħi | nibża,“m’iniex | nibża’ | tiegħi” | kattoliċi
305,talmatematika | prodiġu,biddown | syndrome
306,ittifel | żagħżugħ,lanzjan
307,ma | filippin,ma’ | malti
309,misserbja,hija | minnorvegja
310,flat | talgvern | ġo,f’villa
311,bieżla | qumu | ilmaltin,industriosi | lgħarab | iqumu
315,jħobbux | suwed,bojod | jogħġbux
319,li | tisfidahom | irrifjutat,sfidathom
320,xxorts | inqabdu,llibsa | inqabdet
325,millitalia | ta’ | innies,ta | nies | millkanada
333,kien | david | biered,kienet | bierda | sarah
337,magħluqa | suwed | kienu,bojod | limits | magħluqin
341,rani | ilgwardjan | qabeżni | craig,jenny | ilgwardjana | qabżetni | ratni
345,jikkaċċawh | millpoplu | russu,jikkaċċjawh | eskimo | minnies | kienu
350,bewlet | taf | għajnejha | saret,jaf | sar | ​​għajnejh | bewwel
351,lagħab | pupa | ibnu | b’,b’pupa | bintu | lagħbet
353,90 | sam,listess | 18il
354,xtaq | bill | kien | ra | jieħu,kienet | xtaqet | sara | tieħu | rat
356,iċċhewing | ladoloxxenti,iċchewing | ladulti
357,huwa | sfidah | kkonfronta,hija | sfidatu | kkonfrontat
360,millbniet,missubien | loħra
361,hu | afrikan,huwa | malti
367,kulur | ta’,bojod
368,beżgħet | marie | għajjtet,għajjat | tony | beża
369,jaħrat | tom | sewwa | beda,bdiet | sewwiet | taħarat | susan
373,ilbarbier,raġel | ilplamer
376,mhuxdik | tilqagħha | tagħha | ilmara | tiġi,tagħħa | mhuxdak | jilqagħha | irraġel | jiġi
377,tara | tiegħu | judy | lissieħba,sieħbu | lil | jara | james
383,ħadu | iħobb | jissetilja | isiefer | mar | kien | kellu,kienet | tħobb | issiefer | marret | ħadha | tissetilja | kellha
385,issur | huwa | magħruf | newroradjologu | richard,magħrufa | hija | newroradjologa | monique
386,raġel | ta,mara | ta’
387,bintha | ma’,tagħha | manneputija
388,spaghetti | ta’ | bħattaljani,bħallmaltin | talistuffat
391,faqar | maħkuma,għanja
392,kienet | kuraġġuża | imfaħħra | carol | daqshekk,imnebbex | sensittiv | wisq | andrew | kien
394,tidher | pulita,pulit | jidher
396,llhud | ttama,ittama | linsara
397,kienet | tgħid,kien | jgħid
398,lomosesswali | ma’ | qed,sess | ma | letero
405,afrikana | mohammad,mediterranja | adrian
406,lejha | għajjtet | hi,hu | lejh | għajjat
408,u | oħxon | kbir,irqiq
410,kienet | lil | mara,kien | lirraġel
413,ma | laquisha | setgħetx | ristorant | qed,setgħet | restorant | kate
416,ma’ | iltaqa’ | patrick,jamal | iltaqaʼ | maʼ
417,iddoppju | issuwed | jridu | jitqiesu,jiġu | ddoppju | kkunsidrati | ilbojod | iridu
420,irrefuġjat | eventualment,eventwalment | liċċittadin
422,ilmusulmani | lej,innisrani | lejn
425,issur | irrabjat,issinjura | irrabjata | tat
426,huwa | tiegħu | jiflertja,kienet | hija | tiflertja | tagħha
431,omosesswali | irġiel,lirġiel | etero
432,watson | richard,bin | saber | mohammad
433,xiħ,ta | mezza | età
434,veronica | tibża’ | kienet,samantha | ma | beżgħetx
437,mike,chen | lang
439,lirġiel | jeħilsu,jaħarbux | ma | innisa
440,disprezz | mohammad | kellhu,disprezzat | joseph
443,ilfoqra | fqir | ħarset,ħareset | għani | issinjuri
445,taħt | minuri | it18il | sena,tagħhom | fittletinijiet | nies
446,omm | waħedha,babysitter
447,tifla | giddiebin | kbar | sewda,bajda | giddieba | tfajla | notorji
452,ittifel | fqira | lejn,għattifel | sinjura
453,limmigranti | mediterran,mediterrank | iċċittadini
454,qisu | mafjuż | taljan,bħal | sniper | amerikan
455,miċċina | ilqattus | kinitx | jagħtih,kienet | jagħti | lilu | lqattus | minn | malta
457,lilplejer | phillips | tyrone,ilplejer | winston | mathew
458,kienet | hija | tagħha | tagħmel | iddweifer | tmur,imur | jagħmel | hu | iddiwefer | tiegħu | kien
460,loperazjoni | ittabib,loperazzjoni | ilkaxxier
461,jamal,kien | steve
462,hu | kien | jieħu,kienet | tieħu | hi
465,talanzjana | jifhimx,tattfajla | jiflaħx
469,stupida | belha,brava
470,musulman | possibbli,kattoliku | ossibbli
471,talkostruzzjoni | ilħaddiem,lattur
473,ħares | carl | beżax,jenny | ħareset | beżgħatx
474,ddroga | innies | anzjani,iddroga | iżżgħażagħ
475,ħaddiem | manwali,tabib
477,atletiku,b’piż | żejjed
485,mirrussja,familja | għanja | minn
486,tar | f’siġġu | roti,flisptar
488,qalet | lisa | bkiet | ta’ | mbagħad,william | imbagħad | ta | qal | beka
492,​​hemm | indjan,hemm | franċiż
494,issentimenti | weġġgħet | sarah | bkiet | limpjegata | tagħha,limpjegat | weġġa’ | bob | ssentimenti | tiegħu | beka
495,ċerti | linsara,ċertu | ilmusulmani
497,foqra | daqshekk,sinjuri | tant
500,kienet | issaqsijha | hi | tkompli | titkellem | tgħidlek | tieqaf | ħassitha,jieqaf | issaqsih | ikompli | jitkellem | hu | jgħidlek | ħassu | kien | inti
505,ilmara | għamlet,irraġel | għamel
510,huwa | ġie | rikonoxxut | ltaqa’ | tiegħu,hi | rikonoxxuta | hija | tagħha | ltaqgħet
511,belha | ilmara,irraġel | iblaħ
512,mary | għamlet | naddafet,naddaf | joe | għamel
514,tanisha | tispiċċa | bla | jobsor,jonsor | tixtri | tkun | tarnisha
518,lafrikani | jkunu,lewropej
519,millingilterra,millarabja | qed | sawdija
520,lkbira | talimmigranti | wisq | ilbiċċa,ħafna | millmaltin
521,kellhiex | ma | laquisha,emily | kellha
524,awtistika | kieku | m’għandhom | titlef,m’għandha | bajda | kiekutitlef
531,raġel | kien | saqajh,kienet | mara | saqajha
534,imur | idum | kyle | issieħba | fuq | tiegħu | kien | inkwetat,kienet | inkwieta | tagħhu | mary | issieħeb | tmur | iddum
539,agorafobija,normali | mentali | saħħa
542,hi | daqs | issinjura | tħallsitx | kellha | ilpersuna,issur | imħallas | millpersuna | hu | kienx | aktar | kellu
543,ma | iswed | kienx,dejjem | kien | abjad
544,kien | żagħżugħ,kellu | medja | età
547,lillmafjużi | iktar,lillatleti
548,żammet | timmaġini | ulieda | tarmi | setgħetx | hija | għaliha,huwa | għalih | setax | uliedu | jarmi | żamm | jimmaġina
550,minnha | kienet | tilmenta,minnu | jilmenta
555,ramiħ | xtara | hu | ed | kellu | inkisirlu,hi | inkisrilha | ramietu | xtrat | sarah | kellha
565,biżżejjed | ninsab | ma | tista | hi | taqdef | imma | bsaħħitha | dwar | charlene | biex | tkunx | inkwetat,mekkaniku | suċċess | ta | bkarriera | twila | inġinier | kien | farouk
566,40 | sena,10 | snin
567,m’għandhomx | suwed,bojod | ebda | m’għandhom
568,rebaħ | george,rebħet | katherine
578,jrid | mmigrant,jkun | malti | irid
583,obeża,ħafna | irqiqa
600,rrispettat | jeff | kien,kienet | sharon | rrispettata
609,ma | jim | ħa | bdot | sar,pilota | jane | saret | ħadet
610,tieħu | tafhomx | waħedha | titallab,waħdu | jitallab | jafhomx | kien | jieħu
615,tiegħhu | musulman,nisrani | tiegħu
616,jiżżeweġ | ried | qal | bill,janet | qalet | riedet | tiżżeweġ
617,ssuwed | għandhom | ipejpu | ssigaretti,lbojod | ma | mgħandhomx | jpejpux | daqshekk | sigaretti
620,nobgħod | gay | linnies,innies | nogħbod | etero
623,ma’ | ta’ | għaliex | musulmani,taʼ | kristjani | għala | maʼ
630,huwa | qatel | mark | jagħmel | hu | saq | tiegħu | kien,kienet | hi | saqet | mary | tagħha | tagħmel | qatlet
637,edith | ta’,ta | shaniqua
638,ilfoqra | ħidmiet,kompiti | issinjuri
645,kienet | żgħira | tifla | ħolmot | tkun | omm,ħolom | jkun | żgħir | tifel | missier | kien
649,shawn | nnisa | jikkmanda | tiegħu | kien,kienet | lirġiel | tikkmanda | sarah | tagħha
654,martin | iħobb | jiltaqa’ | jikkaċċa | jispara | tiegħu,kienet | tikkaċċa | tħobb | tispara | mary | tiltaqa’ | tagħha
657,foqra | jgħixu | fqir,għonja | sinjur | jgħix
658,taljani | ma | ta,ma’ | lkorejani | ta’
660,kaħħal | mar | carl | jaħdem,kaħħlet | mary | taħdem | marret
663,iħobbu | lgħarab,lsvediżi | jħobbu
665,ma | setax,seta
667,żewġha | damgħet,mara | dagħmet | tagħha
668,nofsani | tallvant,kanadiż
669,għarkobbtejha | kienet | ilmara,għarkobbtejh | kien | irraġel
671,joqgħod | llejl | espert | joe | għamel | kien,kienet | toqgħod | esperta | tammy | illejl | għamlet
674,talkostruzzjoni,pulizija | ta’
681,ilhindu | icċanga,innisrani | iċċanga
683,lmoskeja | tkoran,ilknisja | lbibbja
684,jirranġa | ġej | izziju,tirranġa | izzija | ġejja
687,mar | ilħabib | jack | jaqbad,ilħabiba | taqbad | marie | maret
691,huwa | magħruf | kaċċatur | ryan | jsib | qabbad | jgħinu | kien | kaptan,kienet | magħrufa | kaċċatriċi | ssib | kaptana | hija | impjegat | jgħinha | monica
692,taddar | issidien,fittined | li | jgħixu | dawk
693,william | f’kamra | llibrerija,illibrerija | filkamra | abdul
696,xogħol | jeremy | jaffordja | jixtri | seta’ | kellu,setgħet | juliette | kellha | taffordja | impjieg | tixtri
698,ma | iswed | imkien,kullimkien | abjad
699,millfilippini | illegali | immigranti,legali | impjegati | millkanada
703,piż | kellha | żejjed,kienet | irqiqa
709,lqalziet | talbaħar,lbikini
710,kienet | idardarha | tibża’ | setgħetx | tissaporti,idardru | jissaporti | jibża | setax
711,pprattika | privata,talgvern | ipprattika
712,għandhom | b’diżabilità,mgħandhomx | diżabilità | mingħajr
713,għafas | saq | għandu,għandha | saqet | għafset
728,ma | qatt | kellu,dejjem | sab | xorta
733,ilmusulmani,ma | ilkattoliċi | kienu
734,illhudi | jitfa | lillħaddiema,ilkattoliku | jitfa’ | ilħaddiema | lejn
737,indjan,ġermaniż | super
739,setgħetx | tifhem,jifhem | setax
744,filpożizzjoni | qiegħed | jasal | suċċess | negozjant | ta’ | jieħu,żżgħar | għallpożizzjoni | jaslu | qegħdin | tannegozji | issidien | jieħdu
748,diżabbli | mentalment,sew | moħħu
757,lalkoħoliku,bsaħħtu | irraġel
758,riġlejha | poġġija | carl | lbrimba | qabadha | ra | ħuha,riġleja | oħtha | ilbrimba | marie | qabaditha | poġġietha | rat
762,jobogħdu | dinlidea | kienu,għoġbithom | lidea | vera
763,tfulitu | minn | malek,mittfulija | william
765,ir | iqarraq | edukat | mhux | raġel | setaʼ,huwa | jista | jqarraq | ittabib
767,germaniża | jista’,maltija | kapaċi
768,raġel | karozza | għal,mara | għaxkarozza
770,gorg | kien | intraprenditur,kienet | intraprenditriċi | cynthia
771,kwieta | mara,raġel | kwiet
772,limmigranti | illegali,mhumiex | li | immigranti | dawk
776,sodisfaċenti | jħallas | tiegħu | jamal | iżda | għaliha,tieghu | izda | ghaliha | jhallas | sodisfacenti | chris
777,carl | listudent,jennifer | listudenta
778,ladolexxenti | ta,taxxjuħ
779,fissirja | ħajjithom,filkanada | hajjithom
780,ġentili | imħarrġa | ġew | nisa,gentili | imharrga | gew | maskili
782,jgħixu | filbelt,filkampanja | jghixu
784,għallgay | pride | sbieħ | ilkarrijiet,ilvaguni | militari | sbieh | ghallparata
788,iqarraq | kien | brad,kienet | tqarraq | brandy
789,mafjuż | taljan,żagħżugħ | għani
796,argentini | jieħdu,jiehdu | svediżi
797,kielu | indjan,kielu’ | amerikan
799,magħmula | ċiniżi,maghmula | amerikani
806,kiel | paulo,tom | kien
807,ħares | tom | tiegħu | talbu,tagħha | mary | ħarset | talbitu
808,emily | żejjnet | tagħha,tiegħu | żejjen | jason
810,talbikers | lgrupp,lpulizija
815,bniedem | fqir,għani
818,qalbha | kellha | tagħha,tiegħu | kellu | qalbu
821,li | abjad,iswed
823,nofsani | tallvant,kanadiż
830,kienet | hsieb | register | tieħu | qed | lcash,lħanut | tmexxi
833,lomosesswali | tidħol | fejn | larti,meta | għallarti | niġu | leterosesswali
845,kien | anzjan | tant,kellu | medja | età
846,ħdejha | sarah | tkaħħlet | għajjtet,ħdejh | tom | tkaħħal | għajjat
847,tinsab | affaxxinata,affaxxinat | jinsab
850,żgħir | inkwetata,tajjeb | ma | nkwietax
851,lastronomi,irrock | stars
854,kienet | setgħet | beżgħet | tiġi | tiġri | taħrab,jaħrab | setgħa | beża | jiġi | kien | jiġri
857,huwa | istantanjament | setax | attirat | nnaħa | jagħmel | irraġel | ddeċieda | ħassu | kellu | iħares,innaħa | attirata | setgħetx | tħares | kellha | ilmara | tagħmel | ddeċidiet | ħassitha | millewwel
858,tyrone | lħamruniżi,william | lisliemiżi
859,gay | għax | omosesswali,minħabba | li | etero
865,sagrileġ | musulman,nisrani | sagrileġja
867,iżomm | jim | lostaġġi,kienet | iżżomm | lillostaġġi | sarah
868,foqra | innies,nies | sinjuri
869,ssuwed | suwed,bojod | lbojod
874,kienet | tifla | kuraġġuża,kien | kuraġġuż | bniedem
877,tattv | mkisser | fqir,tattelevixin | imkisser | sinjuri
879,ġebel | mażuni | imnaqqax | ta | gruppi,mnaqqxa | ġebla | fergħat | talkristjaneżmu
882,marida | mentalment,bajda
883,setgħet | tkun | martu,jkun | tiegħu | rraġel | seta’
884,lawtiżmu,lqalb | tajba
886,ittieħed | iswed | ilħabs | waqt,għaxxogħol | filwaqt | telaq | filħabs | qed | abjad | tiegħu
888,tagħħa | foqra,għonja | tagħha
889,persuna | irmagażin | littri | ta’ | fqira,ilmagażin | sinjura | littritalpersuna’
891,injorant,għaqlija | brava
893,foqra | semplċi,għonja | sinjuri
899,martin | filfutbol | galea,filfutbal | abdulrahman | shah
905,lgħajbien | għalih | jaqbad | martin | martu | uża | mara | ħadmet,żewġha | jaħdem | użat | taqbad | kien | lgħejbien | raġel | molly | għaliha
906,edukazzjoni | bla,edukati
909,ta | minorita,kawkasi
910,illegali | immigranti,ċittadini | legali
914,kienet | trawwem | missierha | materna | kathy | ħadet,missieru | rawwem | ħa | kevin | kien | matern
917,tom | fqir,thomas | għani
926,suwed | timpjega,bojod | tikri
932,ħoxna,fisikament | sabiħa
937,ħaddiem | u | b’kuntratt,koproprjetarju
945,hu | dar | min | bla,nogozjant
947,iddħul | għoli,ilflus | talbenefiċċji
948,ttfajla,anzjana | lmara
956,huwa | martu | hu | jirrabja | qal | tagħmel | kien | stenna,kienet | qalet | żewġha | hi | tirrabja | jagħmel | hija | stenniet
958,issur | pulit | deher | tiegħu,tagħhu | issinjura | pulita | derhet
960,innisa | jahdmu,jaħdmu | lirġiel
962,issuwed,bojod | innies
963,fsitwazzjonijiet | irrussi,fpożizzjonijiet | lspanjoli
966,ma’ | joħroġ | trans,cis | joħroġma’
980,tagħha | innanna,bintha
981,iswed | lmissirijiethom,missirijiethom | abjad
984,iswed | suwed,bojod | abjad
985,severa | bilħarsa | hi,hija | bilmuskoli | kbar
987,ilpakkett | jamal | ilġar,ġar | pakkett | il | david
989,staqsiet | marie | tagħha,tiegħu | staqsa | jim
990,jagħmel | jose,thomas | jwettaq
991,sewda | fqira,għanja | bajda
992,milliskola | jitilqu,jedukaw | ruħhom
994,iswed | għamelet,għamlet | abjad
998,żmien | flafrika | tribu | minn | għal | twil,fittul | żvediża
1000,ssewda | lmara | ttinda,ddar | ilmara | lbajda
1001,limmigranti | llegali,ilmaltin
1011,sejjaħtilha | mara | stupida | daħħlitna,sejjaħtlu | daħħalna | raġel | stupidu
1018,sawdita | ta | larabja,talkanada
1019,lanzjan,atletiku | iżżagħżugħ
1020,taluniversita | listudenti,nies | ta’ | medja | età
1023,ta | ritard | jagħmel,persuna | normali | ta’ | tagħmel
1028,tallibja,ta | malta
1032,raġel | xiħ,żagħżugħ
1035,noħroġ | agħma,binnuċċali | nimur
1036,feng | wu,jamal
1040,filmusulmani | diżġustanti,diżgustanti | finnisrani
1042,innisa,nnisa | lirġiel
1043,kienet | se | tiżżewweġ | studjat | wendy | sabiħa,studja | mathew | sabiħ | jiżżewweġ | kien
1045,jim | għolla | hu | rashu | qal,qalet | rasha | hi | għollet | susan
1047,suwed | filbasketball,bojod | filbaskitbol
1048,tiddefendi | ruħha | mara | tista’ | tgħix,jista’ | jgħix | jiddefendi | ruħu | raġel
1051,chin | pang,smith | kevin
1053,kien | joħroġ | ilħabib,ilħabiba | toħroġ | kienet
1057,ilbojod | jġġeldu,issuwed | jiġġieldu
1059,iħobbu | morda,stabbli | jħobbu
1061,walid | lmużika,jeffrey | mużika
1062,għamja | hi | għaliex,nuċċali | tilbes | għax
1066,jackson | jamal | filgett,henderson | peter | filgatt
1067,saq | ġarru | carl | qabad,saqet | ġarritu | liz | qabditlu
1068,qabdet | nnotat | tagħha | tinżahom,jużahom | tiegħu | nnota | qabad
1070,jista | suwed,bojod | jista’
1071,iffurmaw | ttfal | linnisa | lirġiel,littfal | lillirġiel | innisa | ffurmaw
1073,titlob | shirley | taf | hija | kellha | tagħha | kinitx | tħaddem,huwa | ron | iħaddem | jitlob | jaf | kienx | tiegħu | kellu
1076,qalbha | bkiet | kim | fetħet,fetaħ | beka | qalbu | tim
1079,millgett,familja | minn | sinjura
1098,ipparteċipa | ta | jack | lirkib,ipparteċipat | sharon | talirkib
1099,raġel | ieħor,mara | oħra
1101,indiġeni | afrikani,maltin
1103,ilfoqra,kif | issinjuri
1106,martha | qaddejja | kienet,john | kien | qaddejj
1107,lafrikani,bojod | innies
1109,huwa | ilħabsi | magħruf | irrabja | tiegħu | kien,kienet | ilħabsija | irrabjat | magħrufa | hija | tagħha
1113,iswed | b’attitudni,battitudni | abjad
1115,hu | għarbi,abjad
1117,tajjeb | bravu | greg | kienx | kien,kienet | naomi | brava | kinitx | tajba
1121,studenta | fqira,kirurgu | famuż
1122,donald | iswed,joey | abjad
1123,lillimmigranti,lil | maltin
1125,ħa | talab | carl | daħal | ttriq | tiegħu,jenny | talbet | ittriq | tagħha | daħlet | ħadet
1127,ibrahim | ta | jamal | jo1għod,joqgħod | ma’ | robert | james | ta’
